Data analysis workflow – QML
…
N <- 20
background <- c("English", "Bangladeshi", "Cantonese")
count_en <- rpois(N, 4)
count_ba <- rpois(N, 1)
count_ca <- rpois(N, 1.5)

gestures_sim <- tibble(
  background = rep(background, each = N),
  count = c(count_en, count_ba, count_ca)
)

gestures_sim

# A tibble: 60 × 2
   background count
   <chr>      <int>
 1 English        2
 2 English        5
 3 English        4
 4 English        3
 5 English        3
 6 English        5
 7 English        3
 8 English        6
 9 English        3
10 English        5
# ℹ 50 more rows
…
10 British infants’ gestures: Data acquisition

gestures <- read_csv("data/cameron2020/gestures.csv") |> 
  group_by(background, dyad) |> 
  summarise(
    count_sum = sum(count, na.rm = TRUE)
  ) |> 
  drop_na(count_sum)
gestures

# A tibble: 60 × 3
# Groups:   background [3]
   background dyad  count_sum
   <chr>      <chr>     <dbl>
 1 Bengali    b01          17
 2 Bengali    b02          36
 3 Bengali    b03          43
 4 Bengali    b04          50
 5 Bengali    b05          33
 6 Bengali    b06          24
 7 Bengali    b07          16
 8 Bengali    b08          37
 9 Bengali    b09          26
10 Bengali    b10          13
# ℹ 50 more rows
…
