QML - Week 7 – QML
…
Koppensteiner, Stephan, and Jäschke (2016)

46 students (24 females and 22 males; age M = 25.1 years, SD = 3.6) of the University of Vienna.

They saw a word (takete or maluma) and two stick-figures moving.

They had to pick the stick figure they thought was described by the word.

5 The data

kopper <- read_delim("data/koppensteiner2016/takete_maluma.txt")
kopper

# A tibble: 460 × 5
   Tak_Mal_Stim Answer  Corr_1_Wrong_0 Rater                   Female_0
   <chr>        <chr>            <dbl> <chr>                      <dbl>
 1 Takete       CORRECT              1 10MacI_12_10_11_59_.txt        0
 2 Takete       CORRECT              1 10MacI_12_10_11_59_.txt        0
 3 Takete       CORRECT              1 10MacI_12_10_11_59_.txt        0
 4 Takete       CORRECT              1 10MacI_12_10_11_59_.txt        0
 5 Takete       CORRECT              1 10MacI_12_10_11_59_.txt        0
 6 Maluma       CORRECT              1 10MacI_12_10_11_59_.txt        0
 7 Takete       CORRECT              1 10MacI_12_10_11_59_.txt        0
 8 Takete       CORRECT              1 10MacI_12_10_11_59_.txt        0
 9 Maluma       CORRECT              1 10MacI_12_10_11_59_.txt        0
10 Takete       CORRECT              1 10MacI_12_10_11_59_.txt        0
# ℹ 450 more rows
…
