Statistics and Quantitative Methods (S2)
…
<img src="index_files/figure-html/cent-80-1.png" width="60%" style="display: block; margin: auto;" />

---

<img src="index_files/figure-html/cent-60-1.png" width="60%" style="display: block; margin: auto;" />

---

```r
acc_bm_2_draws
```

```
## # A tibble: 12,000 × 2
##    Relation_type  value
##    <fct>          <dbl>
##  1 Unrelated      0.773
##  2 NonConstituent 1.16 
##  3 Constituent    2.18 
##  4 Unrelated      1.22 
##  5 NonConstituent 1.32 
##  6 Constituent    1.92 
##  7 Unrelated      0.881
##  8 NonConstituent 1.46 
##  9 Constituent    1.55 
## 10 Unrelated      0.845
## # ℹ 11,990 more rows
```
…
