Quantitative Methods for LEL
…
- Outcome variable: **Accuracy** (incorrect vs correct).

- Predictors: 

  - **Relation_type**: unrelated, non-constituent, constituent.
  
  - **Branching**: left ([[un-[ripe]]-ness]), right ([un-[[grace]-ful]]).
]

---

```
## # A tibble: 865 × 5
##    Group ID    Accuracy  Relation_type  Branching
##    <chr> <chr> <fct>     <chr>          <chr>    
##  1 L1    L1_01 correct   Unrelated      Left     
##  2 L1    L1_01 correct   Constituent    Left     
##  3 L1    L1_01 correct   Unrelated      Left     
##  4 L1    L1_01 correct   Constituent    Left     
##  5 L1    L1_01 incorrect Unrelated      Left     
##  6 L1    L1_01 correct   Unrelated      Right    
##  7 L1    L1_01 correct   Constituent    Right    
##  8 L1    L1_01 correct   NonConstituent Left     
##  9 L1    L1_01 correct   NonConstituent Left     
## 10 L1    L1_01 correct   Constituent    Left     
## # ℹ 855 more rows
```
…
