Quantitative Methods for LEL
…
---

layout: true

## Albanian VOT

---

```r
alb_vot_vl
```

```
## # A tibble: 24 × 7
##    speaker file     label release voi_onset consonant   vot
##    <chr>   <chr>    <chr>   <dbl>     <dbl> <chr>     <dbl>
##  1 s01     014-pata p       0.705     0.712 p          7.46
##  2 s01     020-tapa t       0.825     0.833 t          8.00
##  3 s01     055-pata p       0.823     0.838 p         15.0 
##  4 s01     061-tapa t       0.944     0.953 t          8.62
##  5 s01     096-pata p       1.10      1.10  p          6.24
##  6 s01     102-tapa t       0.951     0.964 t         13.1 
##  7 s02     011-tapa t       0.752     0.766 t         13.9 
##  8 s02     034-pata p       0.724     0.735 p         11.1 
##  9 s02     052-tapa t       0.700     0.711 t         11.0 
## 10 s02     075-pata p       0.704     0.716 p         11.7 
## # ℹ 14 more rows
```
…
