Statistics and Quantitative Methods (S2)
…
- The variable(s) to the right of `~` are called **predictor variables** (aka independent variables).
]

---

.f2.center[
`HNRmn ~ attitude`
]

.bg-washed-green.b--dark-green.ba.bw2.br3.shadow-5.ph4.mt2[
😱 But... `attitude` is not a numeric predictor! 
]

```
## # A tibble: 224 × 27
##    subject gender birthplace musicst…¹ month…² scena…³ task  attit…⁴ total…⁵ artic…⁶  f0mn  f0sd f0range  inmn
##    <chr>   <chr>  <chr>      <chr>       <dbl>   <dbl> <chr> <fct>     <dbl>   <dbl> <dbl> <dbl>   <dbl> <dbl>
##  1 F1      F      seoul_area yes            18       6 not   inform…   55.2     3.38  229.  4.18    10.6  64.6
##  2 F1      F      seoul_area yes            18       6 not   polite    28.5    12.2   181.  3.78     9    63.2
##  3 F1      F      seoul_area yes            18       7 not   inform…   60.3     6.19  220.  4.18    10.4  61.8
##  4 F1      F      seoul_area yes            18       7 not   polite    40.8     6.03  176.  4.59    13.1  61.7
##  5 F1      F      seoul_area yes            18       1 dct   polite    18.4     5.61  215.  4.28    10.3  62  
##  6 F1      F      seoul_area yes            18       1 dct   inform…   13.6     5.82  211.  3.43    10.5  61.5
##  7 F1      F      seoul_area yes            18       2 dct   polite     5.22    6.49  285.  2.09     7.1  65.7
##  8 F1      F      seoul_area yes            18       2 dct   inform…    4.25    6.22  266.  4.93    18.3  64.9
##  9 F1      F      seoul_area yes            18       3 dct   polite     6.79    4.89  211.  3.22     6.7  61.3
## 10 F1      F      seoul_area yes            18       3 dct   inform…    4.13    7.79  286.  3.92    11.2  64.9
## # … with 214 more rows, 13 more variables: insd <dbl>, inrange <dbl>, shimmer <dbl>, jitter <dbl>,
## #   HNRmn <dbl>, H1H2 <dbl>, breath_count <dbl>, filler_count <dbl>, hiss_count <dbl>, nasal_count <dbl>,
## #   sil_count <dbl>, ya_count <dbl>, yey_count <dbl>, and abbreviated variable names ¹​musicstudent,
## #   ²​months_ger, ³​scenario, ⁴​attitude, ⁵​total_duration, ⁶​articulation_rate
```
…
**Treatment** coding uses `0` and `1` to code categorical predictors.

<br>

.f3[
|               | attitude_pol |
| ------------- | -------:     |
| informal      | 0            |
| polite        | 1            |
]

---

```
## # A tibble: 224 × 3
##    HNRmn attitude attitude_pol
##    <dbl> <fct>           <dbl>
##  1  18.1 informal            0
##  2  17.8 polite              1
##  3  17   informal            0
##  4  17.1 polite              1
##  5  18.5 polite              1
##  6  18.8 informal            0
##  7  20.9 polite              1
##  8  14.6 informal            0
##  9  20.6 polite              1
## 10  16.1 informal            0
## # … with 214 more rows
```
…
